analyseAll
…
#Exclusion criteria
correctExclusionThreshold <- .4
#Exclude trials with one target, three targets
tbTwo <- tb %>% filter(oneTarget == "False", numSimultaneousStim < 3) 
#correct0 refers to left, correct1 to right.
overall<- tbTwo %>% group_by(subject) %>% summarise_at(c("correct0","correct1"),mean)
overall <- overall %>% mutate(pCorr = (correct0 + correct1)/2)
tooLow2 <- overall %>% filter(pCorr < correctExclusionThreshold)
cat("subjects who were too low in two-target condition are:")

## subjects who were too low in two-target condition are:

tooLow2

## # A tibble: 22 x 4
##    subject correct0 correct1  pCorr
##    <chr>      <dbl>    <dbl>  <dbl>
##  1 1014      0.158    0.632  0.395 
##  2 102       0.0440   0.0503 0.0472
##  3 112       0.152    0.576  0.364 
##  4 219       0.405    0.378  0.392 
##  5 232       0.0833   0.417  0.25  
##  6 400       0.185    0.308  0.246 
##  7 432       0.413    0.253  0.333 
##  8 442       0        0.05   0.025 
##  9 451       0.429    0.362  0.396 
## 10 49        0.0952   0.524  0.310 
## # ... with 12 more rows
…
